<?xml version="1.0" encoding="UTF-8" standalone="no"?>
<!DOCTYPE svg PUBLIC "-//W3C//DTD SVG 1.1//EN" "http://www.w3.org/Graphics/SVG/1.1/DTD/svg11.dtd">
<svg width="100%" height="100%" viewBox="0 0 256 33" version="1.1" xmlns="http://www.w3.org/2000/svg" xmlns:xlink="http://www.w3.org/1999/xlink" xml:space="preserve" xmlns:serif="http://www.serif.com/" style="fill-rule:evenodd;clip-rule:evenodd;stroke-linejoin:round;stroke-miterlimit:2;">
    <g transform="matrix(1,0,0,1,-5257.3,-3451.87)">
        <g transform="matrix(1,0,0,6,5172.3,3403.59)">
            <g transform="matrix(0.178841,0,0,0.0298069,-994.824,-63.7274)">
                <path d="M6326.73,2580.25C6316.92,2569.07 6306.96,2557.91 6296.85,2546.77C6286.73,2535.64 6276.3,2524.84 6265.55,2514.39C6254.8,2503.94 6243.62,2493.97 6232.01,2484.5C6220.41,2475.03 6208.25,2466.33 6195.53,2458.39C6186.15,2457.62 6176.87,2456.51 6167.69,2455.06C6158.52,2453.61 6149.37,2451.52 6140.24,2448.79C6138.36,2448.19 6136.53,2447.62 6134.73,2447.06C6132.94,2446.51 6131.15,2445.89 6129.36,2445.21C6127.14,2444.44 6125.22,2443.71 6123.6,2443.03C6121.98,2442.35 6120.42,2441.64 6118.93,2440.92C6117.43,2440.19 6115.9,2439.42 6114.32,2438.61C6112.74,2437.8 6110.93,2436.89 6108.88,2435.86C6106.4,2434.58 6104.12,2433.07 6102.03,2431.32C6099.94,2429.57 6098.51,2427.29 6097.74,2424.47L6097.61,2424.47L6097.74,2424.34C6097.74,2424.34 6097.7,2424.26 6097.61,2424.09L6106.96,2408.47C6112.93,2407.7 6119.37,2407.89 6126.28,2409.05C6133.2,2410.2 6140.11,2411.9 6147.02,2414.17C6153.93,2416.43 6160.61,2418.99 6167.05,2421.85C6173.5,2424.7 6179.28,2427.41 6184.4,2429.97C6188.75,2432.19 6192.97,2434.45 6197.07,2436.76C6201.16,2439.06 6205.22,2441.49 6209.23,2444.05C6212.98,2444.39 6216.7,2444.65 6220.36,2444.82C6224.03,2444.99 6227.75,2445.16 6231.5,2445.33C6240.46,2445.68 6249.76,2445.99 6259.4,2446.29C6269.05,2446.59 6278.69,2447.17 6288.33,2448.02C6297.98,2448.88 6307.51,2450.11 6316.94,2451.73C6326.37,2453.36 6335.35,2455.66 6343.89,2458.65C6347.13,2459.76 6350.31,2460.93 6353.42,2462.17C6356.54,2463.4 6359.59,2464.83 6362.57,2466.45C6364.88,2467.73 6367.2,2469.08 6369.55,2470.49C6371.9,2471.89 6374.09,2473.45 6376.14,2475.16C6378.87,2477.46 6380.58,2480 6381.26,2482.77C6381.94,2485.55 6381.94,2488.34 6381.26,2491.16C6380.58,2493.97 6379.36,2496.68 6377.61,2499.29C6375.86,2501.89 6373.88,2504.21 6371.66,2506.26C6369.78,2507.97 6367.84,2509.57 6365.84,2511.06C6363.83,2512.55 6361.81,2514.03 6359.76,2515.48C6362.91,2516.08 6366.07,2516.89 6369.23,2517.91C6372.39,2518.93 6375.48,2520.06 6378.51,2521.3C6381.54,2522.54 6384.53,2523.84 6387.47,2525.21C6390.41,2526.57 6393.29,2527.85 6396.11,2529.05C6403.62,2532.37 6411.06,2535.85 6418.44,2539.48C6425.83,2543.1 6433.27,2546.65 6440.78,2550.1C6448.29,2553.56 6455.86,2556.76 6463.5,2559.7C6471.14,2562.65 6478.97,2565.14 6486.99,2567.19C6491.51,2568.3 6496.12,2569.26 6500.81,2570.07C6505.51,2570.88 6510.18,2571.31 6514.83,2571.35C6519.48,2571.39 6524.09,2570.94 6528.65,2570.01C6533.22,2569.07 6537.64,2567.4 6541.9,2565.01C6544.38,2563.65 6546.6,2562.13 6548.56,2560.47C6550.52,2558.81 6552.23,2556.78 6553.68,2554.39C6553.76,2554.3 6554,2554.01 6554.38,2553.49C6554.77,2552.98 6555.15,2552.49 6555.53,2552.02C6555.92,2551.55 6556.26,2551.25 6556.56,2551.13C6556.86,2551 6557.01,2551.19 6557.01,2551.7C6557.01,2552.04 6556.92,2552.45 6556.75,2552.92C6556.58,2553.39 6556.45,2553.71 6556.36,2553.88L6554.7,2557.21C6550.44,2564.2 6545.55,2569.56 6540.05,2573.27C6534.54,2576.98 6528.59,2579.5 6522.19,2580.82C6515.79,2582.14 6509.07,2582.51 6502.03,2581.91C6494.99,2581.31 6487.84,2580.16 6480.59,2578.45C6473.93,2576.92 6467.36,2575.06 6460.88,2572.89C6454.39,2570.71 6447.99,2568.26 6441.68,2565.53C6436.56,2563.39 6431.48,2561.2 6426.44,2558.93C6421.41,2556.67 6416.38,2554.43 6411.34,2552.21C6405.28,2549.48 6399.29,2546.8 6393.36,2544.15C6387.43,2541.5 6381.39,2538.94 6375.24,2536.47C6371.75,2535.1 6368.27,2533.82 6364.81,2532.63C6361.36,2531.43 6357.88,2530.47 6354.38,2529.75C6350.88,2529.02 6347.38,2528.62 6343.89,2528.53C6340.39,2528.45 6336.89,2528.83 6333.39,2529.69C6332.02,2530.2 6330.66,2530.71 6329.29,2531.22C6327.93,2531.73 6326.52,2532.2 6325.07,2532.63L6324.43,2532.89C6325.62,2530.5 6326.82,2528.13 6328.01,2525.78C6329.21,2523.43 6330.4,2521.11 6331.6,2518.81C6331.68,2518.81 6331.9,2518.72 6332.24,2518.55L6332.36,2518.42C6333.56,2517.82 6334.73,2517.33 6335.89,2516.95C6337.04,2516.57 6338.21,2516.2 6339.4,2515.86C6343.76,2514.16 6347.98,2512.28 6352.08,2510.23C6356.17,2508.18 6360.14,2505.84 6363.98,2503.19C6365.43,2502.17 6366.86,2501.1 6368.27,2499.99C6369.68,2498.88 6371.11,2497.73 6372.56,2496.53C6371.88,2494.83 6370.85,2493.16 6369.49,2491.54C6367.18,2488.81 6364.3,2486.42 6360.85,2484.37C6357.39,2482.33 6354.04,2480.58 6350.8,2479.13C6344.74,2476.39 6338.51,2474.07 6332.11,2472.15C6325.71,2470.23 6319.22,2468.63 6312.65,2467.35C6306.08,2466.07 6299.47,2465.05 6292.81,2464.28C6286.16,2463.51 6279.54,2462.87 6272.97,2462.36C6266.32,2461.85 6259.66,2461.44 6253.01,2461.14C6246.35,2460.84 6239.65,2460.57 6232.91,2460.31C6237.77,2463.98 6242.53,2467.71 6247.18,2471.51C6251.83,2475.31 6256.46,2479.25 6261.07,2483.35C6261.5,2481.9 6262.14,2480.24 6262.99,2478.36C6263.84,2476.48 6264.78,2474.67 6265.81,2472.92C6266.83,2471.17 6267.94,2469.68 6269.13,2468.44C6270.33,2467.2 6271.44,2466.5 6272.46,2466.33C6283.64,2482.37 6294.61,2498.35 6305.36,2514.26C6316.11,2530.18 6327.03,2546.16 6338.12,2562.2C6338.55,2562.71 6339,2563.24 6339.47,2563.8C6339.94,2564.35 6340.43,2564.89 6340.94,2565.4L6330.44,2585.37L6326.73,2580.25Z" style="fill-rule:nonzero;"/>
                <path d="M6387.92,2462.1C6384.93,2460.57 6381.99,2458.9 6379.09,2457.11L6379.21,2457.11L6378.57,2456.73L6388.3,2439.32L6389.32,2439.96C6392.82,2441.75 6396.26,2443.58 6399.63,2445.46C6403,2447.34 6406.35,2449.26 6409.68,2451.22C6417.95,2455.06 6426.44,2458.09 6435.15,2460.31C6443.85,2462.53 6452.77,2463.85 6461.9,2464.28C6462.5,2462.83 6463.2,2461.29 6464.01,2459.67C6464.82,2458.05 6465.7,2456.58 6466.64,2455.25C6467.58,2453.93 6468.52,2452.8 6469.45,2451.86C6470.39,2450.92 6471.33,2450.37 6472.27,2450.2L6481.49,2463.64C6486.01,2463.13 6490.7,2462.36 6495.57,2461.33C6502.05,2459.88 6508.52,2457.98 6514.96,2455.64C6521.4,2453.29 6527.57,2450.45 6533.45,2447.13C6535.16,2446.1 6536.85,2445.03 6538.51,2443.93C6540.17,2442.82 6541.82,2441.62 6543.44,2440.34C6544.12,2439.83 6544.7,2439.34 6545.16,2438.87C6545.64,2438.4 6546.17,2437.82 6546.77,2437.14C6546.94,2436.97 6547.19,2436.65 6547.53,2436.18C6547.88,2435.71 6548.09,2435.43 6548.17,2435.35L6548.56,2434.58L6553.93,2428.31C6560.76,2435.05 6566.8,2442.18 6572.05,2449.69C6577.29,2457.2 6581.71,2465.43 6585.29,2474.39C6585.46,2474.9 6585.34,2475.76 6584.91,2476.95C6584.48,2478.14 6583.93,2479.32 6583.24,2480.47C6582.56,2481.62 6581.84,2482.6 6581.07,2483.41C6580.3,2484.22 6579.75,2484.5 6579.4,2484.25C6575.57,2475.97 6570.98,2468.37 6565.65,2461.46C6560.31,2454.55 6554.23,2448.11 6547.4,2442.13C6544.76,2445.97 6541.75,2449.41 6538.38,2452.44C6535.01,2455.47 6531.38,2458.16 6527.5,2460.5C6523.62,2462.85 6519.57,2464.94 6515.34,2466.77C6511.12,2468.61 6506.83,2470.25 6502.48,2471.7C6500.34,2472.47 6498.23,2473.15 6496.14,2473.75C6494.05,2474.35 6491.94,2474.9 6489.81,2475.41C6498.42,2487.62 6507.15,2499.61 6515.98,2511.38C6524.81,2523.16 6533.8,2534.89 6542.93,2546.58C6545.32,2549.57 6547.64,2552.66 6549.9,2555.86C6552.16,2559.06 6554.57,2562.11 6557.13,2565.01C6559.69,2567.91 6562.44,2570.58 6565.39,2573.01C6568.33,2575.45 6571.64,2577.39 6575.31,2578.84C6575.57,2579.43 6575.5,2580.22 6575.12,2581.21C6574.73,2582.19 6574.24,2583.19 6573.65,2584.21C6573.05,2585.24 6572.39,2586.2 6571.66,2587.09C6570.94,2587.99 6570.32,2588.57 6569.81,2588.82C6564.43,2587.37 6559.31,2584.75 6554.44,2580.95C6549.58,2577.15 6544.97,2572.89 6540.62,2568.15C6536.27,2563.41 6532.19,2558.57 6528.4,2553.62C6524.6,2548.67 6521.12,2544.28 6517.97,2540.44C6509.52,2530.11 6501.11,2519.89 6492.75,2509.78C6484.39,2499.67 6476.07,2489.41 6467.79,2479C6465.06,2479.25 6462.28,2479.4 6459.47,2479.45C6456.65,2479.49 6453.88,2479.47 6451.15,2479.38L6455.37,2482.45C6455.72,2483.39 6455.67,2484.57 6455.24,2485.97C6454.82,2487.38 6454.24,2488.81 6453.52,2490.26C6452.79,2491.71 6452,2493.1 6451.15,2494.42C6450.3,2495.74 6449.61,2496.79 6449.1,2497.56C6448.93,2497.81 6448.63,2498.26 6448.2,2498.9C6447.78,2499.54 6447.31,2500.14 6446.8,2500.69C6446.28,2501.25 6445.75,2501.68 6445.2,2501.97C6444.64,2502.27 6444.11,2502.29 6443.6,2502.04C6435.66,2495.55 6427.66,2489.34 6419.6,2483.41C6411.53,2477.48 6403.15,2471.74 6394.44,2466.2C6394.44,2466.2 6394.4,2466.16 6394.32,2466.07L6392.01,2464.66L6391.5,2464.28L6387.92,2462.1ZM6546.25,2438.04C6546.08,2438.29 6546.04,2438.38 6546.12,2438.29C6546.21,2438.21 6546.34,2438.04 6546.51,2437.78C6546.51,2437.78 6546.42,2437.87 6546.25,2438.04ZM6392.01,2464.66C6391.84,2464.58 6391.76,2464.53 6391.76,2464.53L6392.01,2464.66Z" style="fill-rule:nonzero;"/>
                <path d="M6550.61,2575.38C6550.09,2575.13 6549.86,2574.68 6549.9,2574.04C6549.94,2573.4 6550.07,2572.72 6550.28,2571.99C6550.5,2571.26 6550.78,2570.56 6551.12,2569.88C6551.46,2569.2 6551.72,2568.68 6551.89,2568.34C6552.99,2566.04 6554.25,2563.76 6555.66,2561.49C6557.07,2559.23 6558.76,2557.25 6560.72,2555.54C6570.79,2551.7 6580.54,2548.84 6589.97,2546.97C6599.4,2545.09 6608.89,2543.94 6618.44,2543.51C6612.64,2536.77 6606.73,2530.22 6600.72,2523.86C6594.7,2517.5 6588.45,2511.42 6581.97,2505.62C6575.48,2499.82 6568.68,2494.27 6561.55,2488.98C6554.42,2483.69 6546.89,2478.7 6538.96,2474.01C6530.77,2469.14 6522.49,2464.98 6514.12,2461.53C6505.76,2458.07 6497.1,2454.85 6488.14,2451.86L6485.97,2451.22L6493.65,2435.35L6498.77,2437.01C6515.58,2441.88 6532.36,2445.89 6549.13,2449.05C6565.9,2452.2 6582.99,2454.89 6600.4,2457.11C6606.97,2457.88 6613.52,2458.65 6620.05,2459.41C6626.57,2460.18 6633.12,2461.12 6639.69,2462.23C6644.13,2463 6648.65,2463.83 6653.26,2464.73C6657.87,2465.62 6662.22,2467.18 6666.32,2469.4C6669.22,2470.93 6671.35,2472.75 6672.72,2474.84C6674.08,2476.93 6674.85,2479.19 6675.02,2481.62C6675.19,2484.05 6674.89,2486.57 6674.12,2489.17C6673.36,2491.78 6672.33,2494.36 6671.05,2496.92C6668.84,2501.01 6666.49,2504.64 6664.01,2507.8C6669.56,2507.71 6675.06,2507.9 6680.53,2508.37C6685.99,2508.84 6691.34,2509.78 6696.59,2511.19C6701.84,2512.6 6706.96,2514.5 6711.95,2516.89C6716.94,2519.28 6721.78,2522.26 6726.48,2525.85C6728.95,2527.81 6731.3,2529.79 6733.52,2531.8C6735.74,2533.8 6737.68,2535.98 6739.34,2538.33C6741.01,2540.67 6742.33,2543.19 6743.31,2545.88C6744.29,2548.57 6744.82,2551.53 6744.91,2554.77C6744.82,2555.12 6744.59,2555.73 6744.2,2556.63C6743.82,2557.53 6743.37,2558.49 6742.86,2559.51C6742.35,2560.53 6741.8,2561.47 6741.2,2562.33C6740.6,2563.18 6740.05,2563.73 6739.53,2563.99C6739.62,2564.33 6739.56,2564.74 6739.34,2565.21C6739.13,2565.68 6738.98,2565.99 6738.89,2566.17C6738.38,2567.45 6737.7,2568.81 6736.85,2570.26C6735.99,2571.71 6734.97,2572.78 6733.77,2573.46C6731.04,2574.23 6728.27,2574.66 6725.45,2574.74C6722.64,2574.83 6719.84,2574.72 6717.07,2574.42C6714.3,2574.12 6711.5,2573.65 6708.69,2573.01C6705.87,2572.37 6703.1,2571.76 6700.36,2571.16C6694.14,2569.71 6687.95,2568.24 6681.81,2566.74C6675.66,2565.25 6669.39,2563.99 6662.99,2562.97C6658.89,2562.28 6654.86,2561.71 6650.89,2561.24C6646.93,2560.77 6643.02,2560.36 6639.18,2560.02L6635.73,2565.01L6634.83,2563.35C6634.32,2562.67 6633.81,2562.05 6633.29,2561.49C6632.78,2560.94 6632.31,2560.32 6631.89,2559.64C6624.97,2559.38 6618.15,2559.49 6611.4,2559.96C6604.66,2560.43 6597.97,2561.3 6591.31,2562.58C6584.65,2563.86 6577.95,2565.57 6571.21,2567.7C6564.47,2569.84 6557.6,2572.39 6550.61,2575.38ZM6719.95,2536.6C6713.46,2531.9 6706.72,2528.34 6699.73,2525.91C6692.73,2523.48 6685.56,2521.86 6678.22,2521.05C6670.88,2520.24 6663.44,2520.09 6655.89,2520.6C6648.33,2521.11 6640.76,2521.96 6633.16,2523.16C6635.3,2526.66 6637.35,2530.16 6639.31,2533.65C6641.27,2537.15 6643.24,2540.74 6645.2,2544.41C6655.61,2545.43 6666.4,2547.09 6677.58,2549.4C6682.79,2550.42 6687.86,2551.68 6692.81,2553.17C6697.76,2554.67 6702.76,2556.27 6707.79,2557.97C6710.18,2558.83 6712.65,2559.68 6715.21,2560.53C6717.77,2561.39 6720.36,2562.13 6722.96,2562.77C6725.56,2563.41 6728.18,2563.84 6730.83,2564.05C6733.48,2564.27 6736.08,2564.12 6738.64,2563.61C6738.47,2560.53 6737.87,2557.74 6736.85,2555.22C6735.82,2552.7 6734.46,2550.36 6732.75,2548.18C6731.04,2546.01 6729.08,2543.98 6726.86,2542.1C6724.64,2540.22 6722.34,2538.39 6719.95,2536.6ZM6598.22,2472.6C6604.62,2480.7 6610.7,2488.9 6616.46,2497.17C6622.22,2505.45 6627.75,2513.98 6633.04,2522.77L6640.85,2509.59C6644.17,2509.16 6647.44,2508.48 6650.64,2507.54C6653.84,2506.6 6656.89,2505.28 6659.79,2503.57C6661.07,2502.89 6662.2,2502.1 6663.18,2501.21C6664.16,2500.31 6665.12,2499.39 6666.06,2498.45C6666.23,2497.43 6666.32,2496.47 6666.32,2495.57C6666.32,2494.68 6666.23,2493.63 6666.06,2492.44L6664.53,2489.11C6662.82,2487.32 6661.01,2485.85 6659.09,2484.69C6657.16,2483.54 6655.16,2482.56 6653.07,2481.75C6650.98,2480.94 6648.8,2480.26 6646.54,2479.7C6644.28,2479.15 6642,2478.66 6639.69,2478.23C6633.38,2477.03 6627.11,2476.03 6620.88,2475.22C6614.65,2474.41 6608.33,2473.66 6601.93,2472.98L6598.22,2472.6ZM6564.94,2467.99C6569.55,2471.06 6574.03,2474.26 6578.38,2477.59C6578.72,2476.48 6579.15,2475.31 6579.66,2474.07C6580.17,2472.83 6580.77,2471.62 6581.45,2470.42C6578.72,2469.99 6575.97,2469.59 6573.2,2469.21C6570.42,2468.82 6567.67,2468.42 6564.94,2467.99Z" style="fill-rule:nonzero;"/>
                <path d="M6728.53,2533.78C6726.99,2535.32 6725.88,2536.11 6725.2,2536.15C6724.52,2536.19 6724.64,2534.85 6725.58,2532.12C6726.35,2529.9 6727.33,2527.79 6728.53,2525.78C6729.72,2523.78 6731.04,2521.79 6732.49,2519.83C6733.52,2518.46 6734.63,2517.14 6735.82,2515.86C6737.02,2514.58 6738.34,2513.47 6739.79,2512.53C6742.69,2510.66 6745.91,2509.31 6749.45,2508.5C6752.99,2507.69 6756.6,2507.26 6760.27,2507.22C6763.94,2507.18 6767.61,2507.39 6771.28,2507.86C6774.95,2508.33 6778.4,2508.95 6781.65,2509.72L6795.34,2513.17C6791.24,2506.77 6787.09,2500.48 6782.86,2494.29C6778.64,2488.11 6774.22,2481.94 6769.61,2475.8C6767.99,2473.58 6766.37,2471.42 6764.75,2469.33C6763.13,2467.24 6761.46,2465.13 6759.76,2463C6759.42,2462.57 6758.84,2461.76 6758.03,2460.57C6757.22,2459.37 6756.26,2458.05 6755.15,2456.6C6752.85,2455.49 6750.67,2454.23 6748.62,2452.82C6746.57,2451.41 6745.08,2449.6 6744.14,2447.38C6745.34,2445.5 6746.49,2443.63 6747.6,2441.75C6748.71,2439.87 6749.82,2437.95 6750.93,2435.99L6752.85,2432.66L6752.85,2432.79C6753.7,2432.79 6754.62,2433.09 6755.6,2433.69C6756.58,2434.28 6757.54,2435.03 6758.48,2435.93C6759.42,2436.82 6760.36,2437.8 6761.29,2438.87C6762.23,2439.94 6763.13,2441.02 6763.98,2442.13C6765.18,2442.65 6766.37,2443.14 6767.57,2443.61C6768.76,2444.08 6769.91,2444.57 6771.02,2445.08L6784.2,2451.09C6791.8,2454.59 6799.35,2458.09 6806.86,2461.59C6814.37,2465.09 6821.92,2468.63 6829.52,2472.21C6839.42,2476.82 6849.19,2481.58 6858.83,2486.49C6868.47,2491.39 6877.69,2497.09 6886.48,2503.57C6890.83,2506.82 6895.07,2510.38 6899.21,2514.26C6903.35,2518.14 6907.09,2522.37 6910.41,2526.93C6913.74,2531.5 6916.52,2536.34 6918.73,2541.46C6920.95,2546.58 6922.32,2551.96 6922.83,2557.59C6923,2559.72 6923.04,2561.56 6922.96,2563.09C6922.87,2564.63 6922.62,2566.08 6922.19,2567.45C6921.76,2568.81 6921.16,2570.18 6920.4,2571.54C6919.63,2572.91 6918.65,2574.49 6917.45,2576.28C6916.17,2578.24 6914.55,2579.35 6912.59,2579.61C6912.25,2579.43 6912.16,2578.97 6912.33,2578.2C6912.5,2577.43 6912.82,2576.58 6913.29,2575.64C6913.76,2574.7 6914.3,2573.76 6914.89,2572.82C6915.49,2571.88 6916.09,2571.12 6916.69,2570.52C6916.69,2569.92 6916.66,2569.34 6916.62,2568.79C6916.58,2568.24 6916.52,2567.74 6916.43,2567.32C6916.17,2564.16 6915.58,2561.15 6914.64,2558.29C6913.7,2555.43 6912.5,2552.64 6911.05,2549.91C6906.87,2541.8 6901.45,2534.68 6894.8,2528.53C6888.14,2522.39 6881.02,2516.93 6873.42,2512.15C6865.14,2507.03 6856.63,2502.51 6847.89,2498.58C6839.14,2494.66 6830.37,2490.69 6821.58,2486.68C6815.44,2483.95 6809.34,2481.15 6803.28,2478.29C6797.22,2475.43 6791.12,2472.6 6784.97,2469.78C6796.84,2485.91 6807.97,2502.42 6818.38,2519.32C6823.5,2520.6 6828.56,2521.79 6833.55,2522.9C6838.54,2524.01 6843.56,2525.16 6848.59,2526.36C6853.97,2527.64 6859.32,2528.92 6864.65,2530.2C6869.99,2531.48 6875.38,2532.08 6880.85,2531.99C6881.78,2530.62 6882.68,2529.86 6883.53,2529.69C6884.39,2530.45 6884.98,2531.18 6885.32,2531.86C6885.41,2531.86 6885.48,2531.84 6885.52,2531.8C6885.56,2531.76 6885.67,2531.73 6885.84,2531.73L6885.45,2532.25L6885.45,2532.37L6879.44,2542.1C6875.6,2542.87 6871.69,2543.3 6867.73,2543.38C6863.76,2543.47 6859.79,2543.32 6855.82,2542.93C6851.85,2542.55 6847.89,2541.99 6843.92,2541.27C6839.95,2540.54 6836.09,2539.8 6832.33,2539.03C6831.91,2538.94 6831.48,2538.88 6831.05,2538.84C6830.63,2538.8 6830.2,2538.69 6829.77,2538.52C6832.42,2543.21 6835,2547.88 6837.52,2552.53C6840.03,2557.18 6842.53,2561.94 6845.01,2566.81L6845.26,2566.81C6843.73,2570.05 6842.19,2573.25 6840.65,2576.41C6839.12,2579.56 6837.54,2582.76 6835.92,2586.01C6835.75,2585.66 6835.6,2585.34 6835.47,2585.05C6835.34,2584.75 6835.19,2584.43 6835.02,2584.09C6832.03,2584.26 6829.32,2583.91 6826.89,2583.06C6824.46,2582.21 6821.88,2581.31 6819.15,2580.37C6818.47,2580.12 6817.38,2579.73 6815.89,2579.22C6814.39,2578.71 6812.84,2578.18 6811.21,2577.62C6809.59,2577.07 6808.06,2576.55 6806.61,2576.09C6805.15,2575.62 6804.05,2575.25 6803.28,2575C6793.55,2572.01 6783.74,2569.62 6773.84,2567.83C6763.94,2566.04 6753.91,2564.8 6743.76,2564.12C6739.92,2563.86 6736.14,2563.65 6732.43,2563.48C6728.72,2563.31 6725.15,2563.5 6721.74,2564.05C6718.33,2564.61 6715.09,2565.74 6712.01,2567.45C6708.94,2569.15 6706.12,2571.71 6703.57,2575.13L6701.65,2577.56C6700.02,2579.52 6698.91,2580.31 6698.32,2579.93C6697.72,2579.54 6697.85,2578.2 6698.7,2575.89C6699.47,2573.68 6700.45,2571.56 6701.65,2569.56C6702.84,2567.55 6704.16,2565.57 6705.61,2563.61C6706.81,2561.98 6708.05,2560.38 6709.32,2558.81C6710.61,2557.23 6711.97,2555.76 6713.42,2554.39C6717.01,2550.98 6720.74,2548.5 6724.62,2546.97C6728.5,2545.43 6732.52,2544.49 6736.65,2544.15C6740.79,2543.81 6745.06,2543.87 6749.45,2544.34C6753.85,2544.81 6758.35,2545.34 6762.96,2545.94C6771.49,2546.97 6779.94,2548.42 6788.3,2550.29C6796.66,2552.17 6804.94,2554.43 6813.13,2557.08L6822.99,2560.53C6820.52,2555.93 6818.02,2551.42 6815.5,2547.03C6812.98,2542.64 6810.44,2538.18 6807.89,2533.65C6802,2532.37 6796.09,2531.14 6790.16,2529.94C6784.23,2528.75 6778.28,2527.64 6772.3,2526.61C6767.01,2525.76 6761.66,2525.31 6756.24,2525.27C6750.82,2525.23 6745.55,2525.93 6740.43,2527.38C6738.21,2528.06 6736.03,2528.83 6733.9,2529.69C6731.77,2530.54 6729.98,2531.9 6728.53,2533.78ZM6916.81,2573.72C6916.81,2574.4 6916.84,2574.7 6916.88,2574.61C6916.92,2574.53 6916.9,2574.19 6916.81,2573.59L6916.81,2573.72Z" style="fill-rule:nonzero;"/>
                <g transform="matrix(1,0,0,1,422.349,-206.633)">
                    <path d="M6533.82,2776.13C6533.65,2775.87 6533.48,2775.49 6533.3,2774.97C6528.27,2766.53 6522.94,2758.55 6517.3,2751.04C6511.67,2743.53 6505.68,2736.4 6499.32,2729.66C6492.96,2722.92 6486.14,2716.61 6478.84,2710.72C6471.54,2704.83 6463.72,2699.24 6455.35,2693.95L6451.77,2691.77L6430.78,2680.64L6428.6,2679.49L6436.41,2661.82L6440.12,2663.87C6444.98,2666.26 6449.72,2668.71 6454.33,2671.23C6458.94,2673.75 6463.46,2676.37 6467.9,2679.1C6473.7,2682.26 6479.48,2685.37 6485.24,2688.45C6491,2691.52 6496.82,2694.59 6502.71,2697.66C6503.91,2695.7 6505.14,2693.97 6506.42,2692.48C6507.7,2690.99 6508.94,2690.11 6510.14,2689.85L6519.48,2706.24C6536.2,2714.6 6553.08,2722.47 6570.1,2729.85C6587.13,2737.24 6604.6,2743.87 6622.52,2749.76C6630.54,2752.32 6638.61,2754.75 6646.71,2757.05C6649.61,2757.91 6652.52,2758.68 6655.42,2759.36C6658.32,2760.04 6661.26,2760.72 6664.25,2761.41C6661.77,2755.77 6659.02,2750.31 6655.99,2745.02C6652.96,2739.73 6649.57,2734.57 6645.82,2729.53C6639.33,2720.83 6631.95,2712.94 6623.67,2705.85C6615.4,2698.77 6606.52,2692.61 6597.05,2687.36C6587.58,2682.11 6577.66,2677.82 6567.29,2674.49C6556.92,2671.17 6546.36,2668.95 6535.61,2667.84C6533.56,2667.67 6531.75,2667.54 6530.17,2667.45C6528.59,2667.37 6527.05,2667.3 6525.56,2667.26C6524.07,2667.22 6522.53,2667.2 6520.95,2667.2L6515.51,2667.2C6515.09,2666.94 6515.04,2666.3 6515.38,2665.28C6515.73,2664.25 6516.24,2663.17 6516.92,2662.01C6517.6,2660.86 6518.33,2659.8 6519.1,2658.81C6519.86,2657.83 6520.5,2657.3 6521.02,2657.21C6523.15,2657.13 6525.03,2657.07 6526.65,2657.02C6528.27,2656.98 6529.81,2656.96 6531.26,2656.96C6532.71,2656.96 6534.24,2656.98 6535.86,2657.02C6537.49,2657.07 6539.36,2657.17 6541.5,2657.34C6552.33,2658.2 6563.02,2660.12 6573.56,2663.1C6584.1,2666.09 6594.19,2670.08 6603.83,2675.07C6613.48,2680.06 6622.56,2685.99 6631.1,2692.86C6639.63,2699.73 6647.27,2707.43 6654.01,2715.97C6658.1,2721.09 6661.8,2726.44 6665.08,2732.03C6668.36,2737.62 6671.29,2743.49 6673.85,2749.63C6674.62,2751.34 6675.43,2752.98 6676.28,2754.56C6677.13,2756.14 6677.6,2757.82 6677.69,2759.61C6677.69,2759.53 6677.65,2759.44 6677.56,2759.36C6677.56,2759.53 6677.6,2759.66 6677.69,2759.74C6678.11,2761.19 6678.05,2762.94 6677.5,2764.99C6676.94,2767.04 6676.09,2769.02 6674.94,2770.94C6673.78,2772.86 6672.46,2774.53 6670.97,2775.93C6669.48,2777.34 6668.05,2778.13 6666.68,2778.3C6666,2778.39 6665.42,2778.37 6664.95,2778.24C6664.48,2778.11 6663.95,2777.96 6663.35,2777.79C6659.17,2776.77 6655.01,2775.78 6650.87,2774.85C6646.73,2773.91 6642.62,2772.84 6638.52,2771.65C6634.42,2770.54 6630.39,2769.39 6626.42,2768.19C6622.46,2767 6618.42,2765.76 6614.33,2764.48C6600.33,2759.96 6586.62,2754.99 6573.18,2749.57C6559.74,2744.15 6546.36,2738.37 6533.05,2732.22C6535.01,2736.15 6536.89,2740.05 6538.68,2743.93C6540.47,2747.82 6542.22,2751.76 6543.93,2755.77L6545.59,2758.46C6543.63,2761.45 6541.67,2764.39 6539.7,2767.29C6537.74,2770.2 6535.78,2773.14 6533.82,2776.13Z" style="fill-rule:nonzero;"/>
                </g>
                <g transform="matrix(1,0,0,1,422.349,-212.246)">
                    <path d="M6648.76,2669.5C6648.76,2668.39 6649.14,2666.77 6649.91,2664.64C6650.68,2662.51 6651.64,2660.39 6652.79,2658.3C6653.94,2656.21 6655.22,2654.36 6656.63,2652.73C6658.04,2651.11 6659.34,2650.17 6660.54,2649.92C6666.94,2659.48 6673.14,2669.05 6679.16,2678.65C6685.18,2688.25 6691.13,2697.96 6697.02,2707.77C6700.86,2707.35 6704.7,2706.94 6708.54,2706.56C6712.38,2706.17 6716.22,2705.77 6720.06,2705.34C6722.62,2705.09 6725.18,2704.85 6727.74,2704.64C6730.3,2704.43 6732.86,2704.23 6735.42,2704.06C6736.36,2702.53 6737.38,2701.1 6738.49,2699.77C6739.6,2698.45 6740.75,2697.7 6741.94,2697.53C6746.98,2697.88 6751.89,2698.49 6756.66,2699.39C6761.44,2700.29 6766.22,2701.46 6771,2702.91C6774.58,2703 6778.17,2703.1 6781.75,2703.23C6785.34,2703.36 6788.96,2703.55 6792.63,2703.81C6787.6,2699.97 6782.84,2695.83 6778.36,2691.39C6773.88,2686.95 6769.51,2682.17 6765.24,2677.05C6764.39,2676.12 6763.36,2674.96 6762.17,2673.6C6760.97,2672.23 6759.84,2670.76 6758.78,2669.18C6757.71,2667.6 6756.84,2665.98 6756.15,2664.32C6755.47,2662.65 6755.21,2661.05 6755.38,2659.52C6755.47,2658.92 6755.73,2658.05 6756.15,2656.89C6756.58,2655.74 6757.13,2654.55 6757.82,2653.31C6758.5,2652.07 6759.29,2650.86 6760.18,2649.66C6761.08,2648.47 6762,2647.55 6762.94,2646.91C6763.88,2646.27 6764.79,2645.99 6765.69,2646.08C6766.58,2646.16 6767.42,2646.8 6768.18,2648C6768.27,2648.43 6768.2,2649.02 6767.99,2649.79C6767.78,2650.56 6767.46,2651.39 6767.03,2652.29C6766.61,2653.18 6766.11,2654.08 6765.56,2654.97C6765.01,2655.87 6764.47,2656.57 6763.96,2657.09C6765.58,2660.07 6767.65,2662.85 6770.17,2665.41C6772.69,2667.97 6775.1,2670.4 6777.4,2672.7C6785.16,2680.72 6793.49,2687.76 6802.36,2693.82C6811.24,2699.88 6820.88,2704.83 6831.29,2708.67L6834.36,2709.18C6832.91,2711.4 6831.42,2713.58 6829.88,2715.71C6828.34,2717.84 6826.81,2720.02 6825.27,2722.24C6824.76,2722.07 6824.38,2721.9 6824.12,2721.73C6820.88,2721.3 6818.08,2720.94 6815.74,2720.64C6813.39,2720.34 6811.24,2720.06 6809.27,2719.81L6811.45,2720.96C6822.88,2727.44 6834.1,2734.38 6845.11,2741.76C6856.12,2749.14 6866.36,2757.44 6875.83,2766.65C6879.93,2770.66 6883.79,2774.8 6887.42,2779.07C6891.04,2783.34 6894.65,2787.69 6898.23,2792.13C6898.23,2792.13 6898.32,2792.17 6898.49,2792.25L6893.24,2803.77L6891.96,2802.49C6890.08,2800.96 6888.33,2799.34 6886.71,2797.63L6886.71,2797.25C6874.17,2785.04 6860.94,2773.93 6847.03,2763.9C6833.12,2753.88 6818.28,2744.94 6802.49,2737.09C6792.5,2732.22 6782.35,2728.06 6772.02,2724.61C6761.7,2721.15 6751.03,2718.95 6740.02,2718.01C6734.14,2718.27 6728.25,2718.63 6722.36,2719.1C6716.47,2719.57 6710.58,2720.11 6704.7,2720.7C6710.16,2730 6715.49,2739.3 6720.7,2748.61C6725.9,2757.91 6731.06,2767.34 6736.18,2776.89L6725.43,2793.28L6724.79,2792L6715.58,2775.87C6714.98,2774.93 6714.38,2774.01 6713.78,2773.12C6713.19,2772.22 6712.55,2771.3 6711.86,2770.37C6710.41,2768.4 6708.73,2766.21 6706.81,2763.77C6704.89,2761.34 6703.07,2759.23 6701.37,2757.44C6698.81,2754.71 6695.93,2751.89 6692.73,2748.99C6689.53,2746.09 6686.09,2743.27 6682.42,2740.54C6678.76,2737.81 6674.89,2735.27 6670.84,2732.93C6666.79,2730.58 6662.67,2728.55 6658.49,2726.85C6649.53,2728.13 6640.65,2729.28 6631.86,2730.3C6628.45,2730.73 6625.08,2731.11 6621.75,2731.45C6618.42,2731.8 6615.01,2732.01 6611.51,2732.09L6618.17,2717.89C6622.01,2714.47 6626.02,2711.91 6630.2,2710.21C6634.38,2708.5 6638.63,2707.45 6642.94,2707.07C6647.24,2706.69 6651.6,2706.92 6655.99,2707.77C6660.39,2708.63 6664.72,2709.87 6668.98,2711.49L6676.02,2710.59C6667.15,2696.77 6658.06,2683.07 6648.76,2669.5Z" style="fill-rule:nonzero;"/>
                </g>
                <g transform="matrix(1,0,0,1,416.736,-195.406)">
                    <path d="M6887.74,2740.16C6887.74,2739.05 6888.12,2737.43 6888.89,2735.29C6889.66,2733.16 6890.62,2731.05 6891.77,2728.96C6892.92,2726.87 6894.2,2725.01 6895.61,2723.39C6897.02,2721.77 6898.32,2720.83 6899.51,2720.57C6904.72,2725.87 6910.14,2730.86 6915.77,2735.55C6921.4,2740.24 6927.27,2744.6 6933.37,2748.61C6939.47,2752.62 6945.85,2756.18 6952.5,2759.29C6959.16,2762.41 6966.07,2764.99 6973.24,2767.04C6979.3,2768.74 6985.38,2769.98 6991.48,2770.75C6997.58,2771.52 7003.75,2772.12 7009.98,2772.54C7013.13,2772.71 7016.31,2772.8 7019.51,2772.8C7022.71,2772.8 7025.87,2772.59 7028.98,2772.16C7032.1,2771.73 7035.13,2771.01 7038.07,2769.98C7041.02,2768.96 7043.81,2767.55 7046.46,2765.76C7046.46,2764.73 7046.24,2763.67 7045.82,2762.56C7045.39,2761.45 7044.9,2760.36 7044.34,2759.29C7043.79,2758.23 7043.21,2757.22 7042.62,2756.29C7042.02,2755.35 7041.46,2754.49 7040.95,2753.73C7036.43,2746.81 7031.03,2740.84 7024.76,2735.81C7018.49,2730.77 7011.64,2726.46 7004.22,2722.88C6994.83,2718.53 6985.02,2715.54 6974.78,2713.92C6964.54,2712.3 6954.3,2711.66 6944.06,2712C6939.02,2712.17 6933.99,2712.4 6928.95,2712.7C6923.92,2713 6918.86,2713.24 6913.78,2713.41C6908.71,2713.58 6903.65,2713.64 6898.62,2713.6C6893.58,2713.56 6888.59,2713.24 6883.64,2712.64C6882.02,2712.47 6880.18,2712.23 6878.14,2711.93C6876.09,2711.64 6874.3,2711.27 6872.76,2710.85C6870.46,2710.33 6867.62,2709.59 6864.25,2708.61C6860.88,2707.62 6857.57,2706.37 6854.33,2704.83C6851.09,2703.29 6848.16,2701.46 6845.56,2699.33C6842.96,2697.19 6841.23,2694.76 6840.38,2692.03C6839.44,2688.87 6839.42,2685.78 6840.31,2682.75C6841.21,2679.72 6842.38,2676.84 6843.83,2674.11C6845.62,2670.87 6847.46,2668.09 6849.34,2665.79C6851.21,2663.49 6853.3,2661.57 6855.61,2660.03C6857.91,2658.49 6860.49,2657.34 6863.35,2656.57C6866.21,2655.81 6869.43,2655.29 6873.02,2655.04C6878.48,2654.7 6883.79,2654.53 6888.95,2654.53C6894.11,2654.53 6899.38,2655 6904.76,2655.93C6908.77,2656.62 6912.78,2657.47 6916.79,2658.49L6911.54,2652.61C6911.54,2651.5 6911.93,2649.88 6912.7,2647.74C6913.46,2645.61 6914.42,2643.5 6915.58,2641.41C6916.73,2639.32 6918.01,2637.46 6919.42,2635.84C6920.82,2634.22 6922.12,2633.28 6923.32,2633.02C6931.17,2642.49 6939.32,2651.52 6947.77,2660.09C6956.22,2668.67 6965.22,2676.8 6974.78,2684.48C6975.12,2684.65 6975.42,2684.82 6975.67,2684.99C6975.93,2685.16 6976.23,2685.33 6976.57,2685.5C6975.2,2687.64 6973.86,2689.73 6972.54,2691.77C6971.21,2693.82 6969.91,2695.91 6968.63,2698.05C6979.3,2698.99 6989.73,2701.4 6999.93,2705.28C7010.12,2709.16 7019.45,2714.43 7027.9,2721.09C7032.5,2724.76 7036.58,2728.81 7040.12,2733.25C7043.66,2737.68 7046.84,2742.46 7049.66,2747.58C7050.85,2749.8 7051.73,2752.06 7052.28,2754.37C7052.84,2756.67 7052.64,2759.06 7051.7,2761.53L7050.17,2764.35C7050,2764.86 7049.78,2765.46 7049.53,2766.14C7049.27,2766.83 7049.1,2767.29 7049.02,2767.55C7048.5,2768.49 7047.95,2769.41 7047.35,2770.3C7046.76,2771.2 7046.07,2772.03 7045.3,2772.8C7041.46,2776.21 7037.32,2778.92 7032.89,2780.93C7028.45,2782.93 7023.84,2784.4 7019.06,2785.34C7014.28,2786.28 7009.4,2786.79 7004.41,2786.88C6999.42,2786.96 6994.44,2786.75 6989.5,2786.24C6969.61,2784.36 6951.4,2779.48 6934.84,2771.58C6918.28,2763.69 6902.58,2753.21 6887.74,2740.16ZM6902.97,2698.81C6911.84,2699.16 6920.68,2699.03 6929.46,2698.43C6938.25,2697.83 6947.09,2697.53 6955.96,2697.53C6945.04,2691.05 6933.71,2685.37 6921.98,2680.51C6910.24,2675.65 6897.98,2672.49 6885.18,2671.04C6880.65,2670.61 6875.94,2670.38 6871.03,2670.33C6866.12,2670.29 6861.41,2670.74 6856.89,2671.68C6854.07,2672.19 6851.47,2673.09 6849.08,2674.37L6849.08,2674.49C6849.08,2675.09 6849.12,2675.65 6849.21,2676.16C6849.29,2676.67 6849.42,2677.22 6849.59,2677.82C6850.19,2680.04 6851.4,2681.94 6853.24,2683.52C6855.07,2685.1 6856.93,2686.48 6858.81,2687.68C6865.29,2691.6 6872.4,2694.36 6880.12,2695.93C6887.84,2697.51 6895.46,2698.47 6902.97,2698.81Z" style="fill-rule:nonzero;"/>
                </g>
                <g transform="matrix(1,0,0,1,-158.627,-221.95)">
                    <path d="M6227.09,2758.55C6225.56,2760.08 6224.45,2760.87 6223.76,2760.91C6223.08,2760.96 6223.21,2759.61 6224.15,2756.88C6224.92,2754.66 6225.9,2752.55 6227.09,2750.55C6228.29,2748.54 6229.61,2746.56 6231.06,2744.6C6232.08,2743.23 6233.19,2741.91 6234.39,2740.63C6235.58,2739.35 6236.9,2738.24 6238.36,2737.3C6241.26,2735.42 6244.48,2734.08 6248.02,2733.27C6251.56,2732.46 6255.17,2732.03 6258.84,2731.99C6262.51,2731.95 6266.17,2732.16 6269.84,2732.63C6273.51,2733.1 6276.97,2733.72 6280.21,2734.48L6293.91,2737.94C6289.81,2731.54 6285.65,2725.25 6281.43,2719.06C6277.2,2712.87 6272.79,2706.71 6268.18,2700.56C6266.56,2698.35 6264.94,2696.19 6263.32,2694.1C6261.69,2692.01 6260.03,2689.9 6258.32,2687.76C6257.98,2687.34 6257.41,2686.53 6256.6,2685.33C6255.78,2684.14 6254.82,2682.81 6253.72,2681.36C6251.41,2680.25 6249.24,2678.99 6247.19,2677.59C6245.14,2676.18 6243.65,2674.37 6242.71,2672.15C6243.9,2670.27 6245.05,2668.39 6246.16,2666.51C6247.27,2664.64 6248.38,2662.72 6249.49,2660.76L6251.41,2657.43L6251.41,2657.55C6252.27,2657.55 6253.18,2657.85 6254.16,2658.45C6255.15,2659.05 6256.11,2659.8 6257.04,2660.69C6257.98,2661.59 6258.92,2662.57 6259.86,2663.64C6260.8,2664.7 6261.69,2665.79 6262.55,2666.9C6263.74,2667.41 6264.94,2667.9 6266.13,2668.37C6267.33,2668.84 6268.48,2669.33 6269.59,2669.84L6282.77,2675.86C6290.37,2679.36 6297.92,2682.86 6305.43,2686.36C6312.94,2689.85 6320.49,2693.39 6328.08,2696.98C6337.98,2701.59 6347.75,2706.35 6357.4,2711.25C6367.04,2716.16 6376.25,2721.85 6385.04,2728.34C6389.4,2731.58 6393.64,2735.14 6397.78,2739.03C6401.92,2742.91 6405.65,2747.13 6408.98,2751.7C6412.31,2756.26 6415.08,2761.11 6417.3,2766.23C6419.52,2771.35 6420.88,2776.72 6421.4,2782.36C6421.57,2784.49 6421.61,2786.32 6421.52,2787.86C6421.44,2789.39 6421.18,2790.85 6420.76,2792.21C6420.33,2793.58 6419.73,2794.94 6418.96,2796.31C6418.2,2797.67 6417.21,2799.25 6416.02,2801.04C6414.74,2803.01 6413.12,2804.12 6411.16,2804.37C6410.81,2804.2 6410.73,2803.73 6410.9,2802.96C6411.07,2802.2 6411.39,2801.34 6411.86,2800.4C6412.33,2799.47 6412.86,2798.53 6413.46,2797.59C6414.06,2796.65 6414.65,2795.88 6415.25,2795.28C6415.25,2794.69 6415.23,2794.11 6415.19,2793.55C6415.15,2793 6415.08,2792.51 6415,2792.08C6414.74,2788.93 6414.14,2785.92 6413.2,2783.06C6412.27,2780.2 6411.07,2777.41 6409.62,2774.68C6405.44,2766.57 6400.02,2759.44 6393.36,2753.3C6386.71,2747.16 6379.58,2741.69 6371.99,2736.91C6363.71,2731.8 6355.2,2727.27 6346.45,2723.35C6337.7,2719.42 6328.94,2715.45 6320.15,2711.44C6314,2708.71 6307.9,2705.92 6301.84,2703.06C6295.78,2700.2 6289.68,2697.36 6283.54,2694.55C6295.4,2710.68 6306.54,2727.19 6316.95,2744.08C6322.07,2745.36 6327.12,2746.56 6332.12,2747.67C6337.11,2748.78 6342.12,2749.93 6347.16,2751.12C6352.53,2752.4 6357.89,2753.68 6363.22,2754.96C6368.55,2756.24 6373.95,2756.84 6379.41,2756.76C6380.35,2755.39 6381.25,2754.62 6382.1,2754.45C6382.95,2755.22 6383.55,2755.95 6383.89,2756.63C6383.98,2756.63 6384.04,2756.61 6384.08,2756.56C6384.13,2756.52 6384.23,2756.5 6384.4,2756.5L6384.02,2757.01L6384.02,2757.14L6378,2766.87C6374.16,2767.64 6370.26,2768.06 6366.29,2768.15C6362.32,2768.23 6358.36,2768.08 6354.39,2767.7C6350.42,2767.32 6346.45,2766.76 6342.48,2766.03C6338.52,2765.31 6334.65,2764.56 6330.9,2763.8C6330.47,2763.71 6330.05,2763.65 6329.62,2763.6C6329.19,2763.56 6328.77,2763.45 6328.34,2763.28C6330.99,2767.98 6333.57,2772.65 6336.08,2777.3C6338.6,2781.95 6341.1,2786.71 6343.57,2791.57L6343.83,2791.57C6342.29,2794.81 6340.76,2798.01 6339.22,2801.17C6337.68,2804.33 6336.11,2807.53 6334.48,2810.77C6334.31,2810.43 6334.16,2810.11 6334.04,2809.81C6333.91,2809.51 6333.76,2809.19 6333.59,2808.85C6330.6,2809.02 6327.89,2808.68 6325.46,2807.83C6323.03,2806.97 6320.45,2806.08 6317.72,2805.14C6317.03,2804.88 6315.94,2804.5 6314.45,2803.99C6312.96,2803.47 6311.4,2802.94 6309.78,2802.39C6308.16,2801.83 6306.62,2801.32 6305.17,2800.85C6303.72,2800.38 6302.61,2800.02 6301.84,2799.76C6292.12,2796.78 6282.3,2794.39 6272.4,2792.6C6262.51,2790.8 6252.48,2789.57 6242.32,2788.88C6238.48,2788.63 6234.71,2788.41 6231,2788.24C6227.28,2788.07 6223.72,2788.26 6220.31,2788.82C6216.89,2789.37 6213.65,2790.51 6210.58,2792.21C6207.51,2793.92 6204.69,2796.48 6202.13,2799.89L6200.21,2802.32C6198.59,2804.29 6197.48,2805.08 6196.88,2804.69C6196.29,2804.31 6196.41,2802.96 6197.27,2800.66C6198.04,2798.44 6199.02,2796.33 6200.21,2794.32C6201.41,2792.32 6202.73,2790.33 6204.18,2788.37C6205.37,2786.75 6206.61,2785.15 6207.89,2783.57C6209.17,2781.99 6210.54,2780.52 6211.99,2779.16C6215.57,2775.74 6219.31,2773.27 6223.19,2771.73C6227.07,2770.2 6231.08,2769.26 6235.22,2768.91C6239.36,2768.57 6243.62,2768.64 6248.02,2769.11C6252.41,2769.58 6256.92,2770.11 6261.52,2770.71C6270.06,2771.73 6278.51,2773.18 6286.87,2775.06C6295.23,2776.94 6303.51,2779.2 6311.7,2781.84L6321.56,2785.3C6319.08,2780.69 6316.59,2776.19 6314.07,2771.8C6311.55,2767.4 6309.01,2762.94 6306.45,2758.42C6300.56,2757.14 6294.65,2755.9 6288.72,2754.71C6282.79,2753.51 6276.84,2752.4 6270.87,2751.38C6265.58,2750.53 6260.22,2750.08 6254.8,2750.03C6249.39,2749.99 6244.12,2750.7 6239,2752.15C6236.78,2752.83 6234.6,2753.6 6232.47,2754.45C6230.33,2755.3 6228.54,2756.67 6227.09,2758.55ZM6415.38,2798.48C6415.38,2799.17 6415.4,2799.47 6415.44,2799.38C6415.49,2799.29 6415.47,2798.95 6415.38,2798.36L6415.38,2798.48Z" style="fill-rule:nonzero;"/>
                </g>
            </g>
        </g>
    </g>
</svg>
